module gitlab.com/jcorry/cars

go 1.19

require (
	github.com/envoyproxy/protoc-gen-validate v0.1.0
	github.com/grpc-ecosystem/grpc-gateway/v2 v2.15.0
	github.com/maxbrunsfeld/counterfeiter/v6 v6.5.0
	github.com/pkg/errors v0.9.1
	github.com/segmentio/ksuid v1.0.4
	github.com/stretchr/testify v1.8.1
	gitlab.com/jcorry/look v0.4.0
	google.golang.org/genproto v0.0.0-20221207170731-23e4bf6bdc37
	google.golang.org/grpc v1.51.0
	google.golang.org/protobuf v1.28.1
)

require (
	github.com/davecgh/go-spew v1.1.1 // indirect
	github.com/felixge/httpsnoop v1.0.3 // indirect
	github.com/getsentry/sentry-go v0.15.0 // indirect
	github.com/go-stack/stack v1.8.1 // indirect
	github.com/golang/protobuf v1.5.2 // indirect
	github.com/kr/text v0.2.0 // indirect
	github.com/pmezard/go-difflib v1.0.0 // indirect
	go.uber.org/atomic v1.7.0 // indirect
	go.uber.org/multierr v1.6.0 // indirect
	go.uber.org/zap v1.24.0 // indirect
	golang.org/x/mod v0.6.0-dev.0.20220419223038-86c51ed26bb4 // indirect
	golang.org/x/net v0.3.0 // indirect
	golang.org/x/sys v0.3.0 // indirect
	golang.org/x/text v0.5.0 // indirect
	golang.org/x/tools v0.1.12 // indirect
	gopkg.in/yaml.v3 v3.0.1 // indirect
)
